Project 2: Data Mining, Classification, Prediction
…
class_diag <- function(score, truth, positive, cutoff = 0.5) {
    
    pred <- factor(score > cutoff, levels = c("TRUE", "FALSE"))
    truth <- factor(truth == positive, levels = c("TRUE", "FALSE"))
}
# summarise_all(diags,mean)

# cross-validation of linear classifier here
data$sex <- ifelse(data$sex == "man", 1, 0)
data$X1 <- NULL
data

## # A tibble: 23,972  6
##    wfood  totexp   age  size  town   sex
##    <dbl>   <dbl> <dbl> <dbl> <dbl> <dbl>
##  1 0.468 1290941    43     5     2     0
##  2 0.313 1277978    40     3     2     0
##  3 0.376  845852    28     3     2     0
##  4 0.440  527698    60     1     2     0
##  5 0.404 1103220    37     5     2     0
##  6 0.199 1768128    35     4     2     0
##  7 0.159 1107529    40     4     2     0
##  8 0.519  737959    68     2     2     0
##  9 0.339 1019848    43     9     2     0
## 10 0.272 2149883    51     7     2     0
## #  with 23,962 more rows

fit <- glm(sex ~ wfood + totexp + age + size + town, data = data, 
    family = "binomial")  #fit model
prob <- predict(fit, type = "response")
prob

##            1            2            3            4            5            6 
## 2.900701e-12 2.900701e-12 2.900701e-12 2.900701e-12 2.900701e-12 2.900701e-12 
##            7            8            9           10           11           12 
## 2.900701e-12 2.900701e-12 2.900701e-12 2.900701e-12 2.900701e-12 2.900701e-12 
##           13           14           15           16           17           18 
## 2.900701e-12 2.900701e-12 2.900701e-12 2.900701e-12 2.900701e-12 2.900701e-12 
##           19           20           21           22           23           24 
## 2.900701e-12 2.900701e-12 2.900701e-12 2.900701e-12 2.900701e-12 2.900701e-12 
##           25           26           27           28           29           30 
## 2.900701e-12 2.900701e-12 2.900701e-12 2.900701e-12 2.900701e-12 2.900701e-12 
##           31           32           33           34           35           36 
## 2.900701e-12 2.900701e-12 2.900701e-12 2.900701e-12 2.900701e-12 2.900701e-12 
##           37           38           39           40           41           42 
## 2.900701e-12 2.900701e-12 2.900701e-12 2.900701e-12 2.900701e-12 2.900701e-12 
##           43           44           45           46           47           48 
## 2.900701e-12 2.900701e-12 2.900701e-12 2.900701e-12 2.900701e-12 2.900701e-12 
##           49           50           51           52           53           54 
## 2.900701e-12 2.900701e-12 2.900701e-12 2.900701e-12 2.900701e-12 2.900701e-12 
##           55           56           57           58           59           60 
## 2.900701e-12 2.900701e-12 2.900701e-12 2.900701e-12 2.900701e-12 2.900701e-12 
##           61           62           63           64           65           66 
## 2.900701e-12 2.900701e-12 2.900701e-12 2.900701e-12 2.900701e-12 2.900701e-12 
##           67           68           69           70           71           72 
## 2.900701e-12 2.900701e-12 2.900701e-12 2.900701e-12 2.900701e-12 2.900701e-12 
##           73           74           75           76           77           78 
## 2.900701e-12 2.900701e-12 2.900701e-12 2.900701e-12 2.900701e-12 2.900701e-12 
##           79           80           81           82           83           84 
## 2.900701e-12 2.900701e-12 2.900701e-12 2.900701e-12 2.900701e-12 2.900701e-12 
##           85           86           87           88           89           90 
## 2.900701e-12 2.900701e-12 2.900701e-12 2.900701e-12 2.900701e-12 2.900701e-12 
##           91           92           93           94           95           96 
## 2.900701e-12 2.900701e-12 2.900701e-12 2.900701e-12 2.900701e-12 2.900701e-12 
##           97           98           99          100 
## 2.900701e-12 2.900701e-12 2.900701e-12 2.900701e-12 
##  [ reached getOption("max.print") -- omitted 23871 entries ]
…
